{
  "teams": [
    {
      "id": "0d58ad70-9f49-4c08-b184-b725a2cfb106",
      "logo": "./../assets/logos/chargers.png",
      "name": "Chargers",
      "fullName": "Los Angeles Chargers",
      "nickName": "Chargers",
      "abbr": "SD",
      "roster": [
        {
          "person": {
            "displayName": "Keenan Allen"
          },
          "unit": "OFFENSE",
          "positionAbbr": "WR",
          "position": "Wide Receiver",
          "depthOrder": 1
        },
        {
          "person": {
            "displayName": "Travis Benjamin"
          },
          "unit": "OFFENSE",
          "positionAbbr": "WR",
          "position": "Wide Receiver",
          "depthOrder": 1
        },
        {
          "person": {
            "displayName": "Dylan Cantrell"
          },
          "unit": "OFFENSE",
          "positionAbbr": "WR",
          "position": "Wide Receiver",
          "depthOrder": 2
        },
        {
          "person": {
            "displayName": "Philip Rivers"
          },
          "unit": "OFFENSE",
          "positionAbbr": "QB",
          "position": "Quarterback",
          "depthOrder": 1
        },
        {
          "person": {
            "displayName": "Geno Smith"
          },
          "unit": "OFFENSE",
          "positionAbbr": "QB",
          "position": "Quarterback",
          "depthOrder": 2
        },
        {
          "person": {
            "displayName": "Melvin Gordon"
          },
          "unit": "OFFENSE",
          "positionAbbr": "RB",
          "position": "Running Back",
          "depthOrder": 1
        },
        {
          "person": {
            "displayName": "Austin Ekeler"
          },
          "unit": "OFFENSE",
          "positionAbbr": "RB",
          "position": "Running Back",
          "depthOrder": 2
        },
        {
          "person": {
            "displayName": "Joey Bosa"
          },
          "unit": "DEFENSE",
          "positionAbbr": "LDE",
          "position": "Left Defensive End",
          "depthOrder": 1
        },
        {
          "person": {
            "displayName": "Melvin Ingram"
          },
          "unit": "DEFENSE",
          "positionAbbr": "RDE",
          "position": "Right Defensive End",
          "depthOrder": 1
        }
      ]
    },
    {
      "id": "0d58ad70-9f49-4c08-b184-b725a2cfb107",
      "logo": "./../assets/logos/cowboys.png",
      "name": "Cowboys",
      "fullName": "Dallas Cowboys",
      "nickName": "Cowboys",
      "abbr": "DC",
      "roster": [
        {
          "person": {
            "displayName": "Amari Cooper"
          },
          "unit": "OFFENSE",
          "positionAbbr": "WR",
          "position": "Wide Receiver",
          "depthOrder": 1
        },
        {
          "person": {
            "displayName": "Tavon Austin"
          },
          "unit": "OFFENSE",
          "positionAbbr": "WR",
          "position": "Wide Receiver",
          "depthOrder": 2
        },
        {
          "person": {
            "displayName": "Noah Brown"
          },
          "unit": "OFFENSE",
          "positionAbbr": "WR",
          "position": "Wide Receiver",
          "depthOrder": 2
        },
        {
          "person": {
            "displayName": "Dak Prescott"
          },
          "unit": "OFFENSE",
          "positionAbbr": "QB",
          "position": "Quarterback",
          "depthOrder": 1
        },
        {
          "person": {
            "displayName": "Ezekiel Elliott"
          },
          "unit": "OFFENSE",
          "positionAbbr": "RB",
          "position": "Running Back",
          "depthOrder": 1
        },
        {
          "person": {
            "displayName": "Rod Smith"
          },
          "unit": "OFFENSE",
          "positionAbbr": "RB",
          "position": "Running Back",
          "depthOrder": 2
        },
        {
          "person": {
            "displayName": "Sean Lee"
          },
          "unit": "DEFENSE",
          "positionAbbr": "WLB",
          "position": "Weakside Linebacker",
          "depthOrder": 1
        },
        {
          "person": {
            "displayName": "Leighton Vander Esch"
          },
          "unit": "DEFENSE",
          "positionAbbr": "WLB",
          "position": "Weakside Linebacker",
          "depthOrder": 2
        }
      ]
    },
    {
      "id": "0d58ad70-9f49-4c08-b184-b725a2cfb108",
      "logo": "./../assets/logos/texans.png",
      "name": "Texans",
      "fullName": "Houston Texans",
      "nickName": "Texans",
      "abbr": "HT",
      "roster": [
        {
          "person": {
            "displayName": "Keke Coutee"
          },
          "unit": "OFFENSE",
          "positionAbbr": "WR",
          "position": "Wide Receiver",
          "depthOrder": 1
        },
        {
          "person": {
            "displayName": "DeAndre Carter"
          },
          "unit": "OFFENSE",
          "positionAbbr": "WR",
          "position": "Wide Receiver",
          "depthOrder": 2
        },
        {
          "person": {
            "displayName": "Vyncint Smith"
          },
          "unit": "OFFENSE",
          "positionAbbr": "WR",
          "position": "Wide Receiver",
          "depthOrder": 2
        },
        {
          "person": {
            "displayName": "Deshaun Watson"
          },
          "unit": "OFFENSE",
          "positionAbbr": "QB",
          "position": "Quarterback",
          "depthOrder": 1
        },
        {
          "person": {
            "displayName": "Brandon Weeden"
          },
          "unit": "OFFENSE",
          "positionAbbr": "QB",
          "position": "Quarterback",
          "depthOrder": 2
        },
        {
          "person": {
            "displayName": "Lamar Miller"
          },
          "unit": "OFFENSE",
          "positionAbbr": "RB",
          "position": "Running Back",
          "depthOrder": 1
        },
        {
          "person": {
            "displayName": "Alfred Blue"
          },
          "unit": "OFFENSE",
          "positionAbbr": "RB",
          "position": "Running Back",
          "depthOrder": 2
        },
        {
          "person": {
            "displayName": "Brandon Dunn"
          },
          "unit": "DEFENSE",
          "positionAbbr": "NT",
          "position": "Nose Tackle",
          "depthOrder": 1
        },
        {
          "person": {
            "displayName": "D.J. Reader"
          },
          "unit": "DEFENSE",
          "positionAbbr": "NT",
          "position": "Nose Tackle",
          "depthOrder": 2
        }
      ]
    },
    {
      "id": "0d58ad70-9f49-4c08-b184-b725a2cfb109",
      "logo": "./../assets/logos/rams.png",
      "name": "Rams",
      "fullName": "Los Angeles Rams",
      "nickName": "Rams",
      "abbr": "LAR",
      "roster": [
        {
          "person": {
            "displayName": "Josh Reynolds"
          },
          "unit": "OFFENSE",
          "positionAbbr": "WR",
          "position": "Wide Receiver",
          "depthOrder": 1
        },
        {
          "person": {
            "displayName": "KhaDarel Hodge"
          },
          "unit": "OFFENSE",
          "positionAbbr": "WR",
          "position": "Wide Receiver",
          "depthOrder": 2
        },
        {
          "person": {
            "displayName": "Brandin Cooks"
          },
          "unit": "OFFENSE",
          "positionAbbr": "WR",
          "position": "Wide Receiver",
          "depthOrder": 1
        },
        {
          "person": {
            "displayName": "Jared Goff"
          },
          "unit": "OFFENSE",
          "positionAbbr": "QB",
          "position": "Quarterback",
          "depthOrder": 1
        },
        {
          "person": {
            "displayName": "Sean Mannion"
          },
          "unit": "OFFENSE",
          "positionAbbr": "QB",
          "position": "Quarterback",
          "depthOrder": 2
        },
        {
          "person": {
            "displayName": "Todd Gurley II"
          },
          "unit": "OFFENSE",
          "positionAbbr": "RB",
          "position": "Running Back",
          "depthOrder": 1
        },
        {
          "person": {
            "displayName": "Justin Davis"
          },
          "unit": "OFFENSE",
          "positionAbbr": "RB",
          "position": "Running Back",
          "depthOrder": 2
        },
        {
          "person": {
            "displayName": "John Kelly"
          },
          "unit": "OFFENSE",
          "positionAbbr": "RB",
          "position": "Running Back",
          "depthOrder": 3
        },
        {
          "person": {
            "displayName": "John Johnson III"
          },
          "unit": "DEFENSE",
          "positionAbbr": "SS",
          "position": "Strong Safety",
          "depthOrder": 1
        },
        {
          "person": {
            "displayName": "Aqib Talib"
          },
          "unit": "DEFENSE",
          "positionAbbr": "RCB",
          "position": "Right Cornerback",
          "depthOrder": 1
        }
      ]
    },
    {
      "id": "0d58ad70-9f49-4c08-b184-b725a2cfb110",
      "logo": "./../assets/logos/raiders.png",
      "name": "Raiders",
      "fullName": "Oakland Raiders",
      "nickName": "Raiders",
      "abbr": "OR",
      "roster": [
        {
          "person": {
            "displayName": "Marcell Ateman"
          },
          "unit": "OFFENSE",
          "positionAbbr": "WR",
          "position": "Wide Receiver",
          "depthOrder": 1
        },
        {
          "person": {
            "displayName": "Jordy Nelson"
          },
          "unit": "OFFENSE",
          "positionAbbr": "WR",
          "position": "Wide Receiver",
          "depthOrder": 1
        },
        {
          "person": {
            "displayName": "Seth Roberts"
          },
          "unit": "OFFENSE",
          "positionAbbr": "WR",
          "position": "Wide Receiver",
          "depthOrder": 2
        },
        {
          "person": {
            "displayName": "Derek Carr"
          },
          "unit": "OFFENSE",
          "positionAbbr": "QB",
          "position": "Quarterback",
          "depthOrder": 1
        },
        {
          "person": {
            "displayName": "AJ McCarron"
          },
          "unit": "OFFENSE",
          "positionAbbr": "QB",
          "position": "Quarterback",
          "depthOrder": 2
        },
        {
          "person": {
            "displayName": "Doug Martin"
          },
          "unit": "OFFENSE",
          "positionAbbr": "RB",
          "position": "Running Back",
          "depthOrder": 1
        },
        {
          "person": {
            "displayName": "Jalen Richard"
          },
          "unit": "OFFENSE",
          "positionAbbr": "RB",
          "position": "Running Back",
          "depthOrder": 2
        },
        {
          "person": {
            "displayName": "Frostee Rucker"
          },
          "unit": "DEFENSE",
          "positionAbbr": "LDE",
          "position": "Left Defensive End",
          "depthOrder": 1
        },
        {
          "person": {
            "displayName": "Arden Key"
          },
          "unit": "DEFENSE",
          "positionAbbr": "RDE",
          "position": "Right Defensive End",
          "depthOrder": 1
        }
      ]
    }
  ]
}